{
  "$schema": "http://schema.management.azure.com/schemas/2015-01-01/deploymentTemplate.json#",
  "contentVersion": "2.9.2.0",
  "parameters": {
    "storageAccountName": {
      "type": "string"
    },
    "functionAppName": {
      "type": "string",
      "defaultValue": "__functionAppName__"
    },
    "hostingPlanName": {
      "type": "string",
      "defaultValue": "__functionAppName__"
    },
    "workerSize": {
      "type": "string",
      "defaultValue": "0"
    },
    "workSizeId": {
      "type": "string",
      "defaultValue": "0"
    },
    "numberOfWorkers": {
      "type": "string",
      "defaultValue": "0"
    },
    "hostingPlanSku": {
      "type": "string",
      "defaultValue": "Basic"
    },
    "hostingPlanSkuCode": {
      "type": "string",
      "defaultValue": "B1"
    },
    "alwaysOn": {
      "type": "bool",
      "defaultValue": true
    },
    "FUNCTIONS_EXTENSION_VERSION": {
      "type": "string",
      "defaultValue": "~3"
    },
    "FUNCTIONS_WORKER_RUNTIME": {
      "type": "string",
      "defaultValue": "dotnet"
    },
    "AzureWebJobsStorage": {
      "type": "string",
      "defaultValue": "__AzureWebJobsStorage__"
    },
    "AzureWebJobsServiceBus": {
      "type": "string",
      "defaultValue": "__AzureWebJobsServiceBus__"
    },
    "SBEBHVALIDATEREQUEST": {
      "type": "string",
      "defaultValue": "__SBEBHVALIDATEREQUEST__"
    },
    "SBEBHCONFIGURATIONREQUEST": {
      "type": "string",
      "defaultValue": "__SBEBHCONFIGURATIONREQUEST__"
    },
    "SBEBHINVSUBREQUEST": {
      "type": "string",
      "defaultValue": "__SBEBHINVSUBREQUEST__"
    },
    "SBEBHINVSTATREQUEST": {
      "type": "string",
      "defaultValue": "__SBEBHINVSTATREQUEST__"
    },
    "SBEBHATTACHMENTREQUEST": {
      "type": "string",
      "defaultValue": "__SBEBHATTACHMENTREQUEST__"
    },
    "SBEBHVALIDATEPENDING": {
      "type": "string",
      "defaultValue": "__SBEBHVALIDATEPENDING__"
    },
    "EBHUrl": {
      "type": "string",
      "defaultValue": "__EBHUrl__"
    },
    "ProviderKey": {
      "type": "string",
      "defaultValue": "__ProviderKey__"
    },
    "applicatonOutputConnectionString": {
      "type": "string",
      "defaultValue": "__applicatonOutputConnectionString__"
    },
    "applicatonOutputContainerName": {
      "type": "string",
      "defaultValue": "__applicatonOutputContainerName__"
    },
    "attachmentConnectionString": {
      "type": "string",
      "defaultValue": "__attachmentConnectionString__"
    },
    "attachmentContainerName": {
      "type": "string",
      "defaultValue": "__attachmentContainerName__"
    },
    "ClientID": {
      "type": "string",
      "defaultValue": "__ClientID__"
    },
    "TRSRuntimeClientID": {
      "type": "string",
      "defaultValue": "__TRSRuntimeClientID__"
    },
    "TRSRuntimeClientSecret": {
      "type": "string",
      "defaultValue": "__TRSRuntimeClientSecret__"
    },
    "TRSAppID": {
      "type": "string",
      "defaultValue": "__TRSAppID__"
    },
    "TRSAADTenantID": {
      "type": "string",
      "defaultValue": "__TRSAADTenantID__"
    },
    "TRS-IsEnabled": {
      "type": "bool",
      "defaultValue": true
    },
    "TRSUri": {
      "type": "string",
      "defaultValue": "__TRSUri__"
    },
    "StorageAccountSku": {
      "type": "string",
      "defaultValue": "Standard_LRS"
    }
  },
  "variables": {
  },
  "resources": [
    {
      "name": "[parameters('FunctionAppName')]",
      "type": "Microsoft.Web/sites",
      "kind": "functionapp",
      "apiVersion": "2018-11-01",
      "location": "[resourceGroup().location]",
      "tags": {
      },
      "dependsOn": [
        "[resourceId('Microsoft.Web/serverfarms', parameters('hostingPlanName'))]",
        "[resourceId('Microsoft.Storage/storageAccounts', parameters('StorageAccountName'))]"
      ],
      "properties": {
        "name": "[parameters('FunctionAppName')]",
        "siteConfig": {
          "appSettings": [
            {
              "name": "FUNCTIONS_EXTENSION_VERSION",
              "value": "[parameters('FUNCTIONS_EXTENSION_VERSION')]"
            },
            {
              "name": "AzureWebJobsStorage",
              "value": "[concat('DefaultEndpointsProtocol=https;AccountName=', parameters('StorageAccountName'), ';AccountKey=', listKeys(resourceId('__ResourceGroupName__','Microsoft.Storage/storageAccounts', parameters('StorageAccountName')), '2019-04-01').keys[0].value,';EndpointSuffix=core.windows.net')]"
            },
            {
              "name": "AzureWebJobsServiceBus",
              "value": "[parameters('AzureWebJobsServiceBus')]"
            },
            {
              "name": "SBEBHVALIDATEREQUEST",
              "value": "[parameters('SBEBHVALIDATEREQUEST')]"
            },
            {
              "name": "SBEBHVALIDATEPENDING",
              "value": "[parameters('SBEBHVALIDATEPENDING')]"
            },
            {
              "name": "SBEBHCONFIGURATIONREQUEST",
              "value": "[parameters('SBEBHCONFIGURATIONREQUEST')]"
            },
            {
              "name": "SBEBHINVSUBREQUEST",
              "value": "[parameters('SBEBHINVSUBREQUEST')]"
            },
            {
              "name": "SBEBHINVSTATREQUEST",
              "value": "[parameters('SBEBHINVSTATREQUEST')]"
            },
            {
              "name": "SBEBHATTACHMENTREQUEST",
              "value": "[parameters('SBEBHATTACHMENTREQUEST')]"
            },
            {
              "name": "EBHUrl",
              "value": "[parameters('EBHUrl')]"
            },
            {
              "name": "ProviderKey",
              "value": "[parameters('ProviderKey')]"
            },
            {
              "name": "applicatonOutputConnectionString",
              "value": "[parameters('applicatonOutputConnectionString')]"
            },
            {
              "name": "applicatonOutputContainerName",
              "value": "[parameters('applicatonOutputContainerName')]"
            },
            {
              "name": "attachmentConnectionString",
              "value": "[parameters('attachmentConnectionString')]"
            },
            {
              "name": "attachmentContainerName",
              "value": "[parameters('attachmentContainerName')]"
            },
            {
              "name": "ebhvalidaterequestqn",
              "value": "[concat('ebhvalidaterequest-',parameters('ClientID'))]"
            },
            {
              "name": "ebhvalidatependingqn",
              "value": "[concat('ebhvalidatepending-',parameters('ClientID'))]"
            },
            {
              "name": "ebhvalidateresponseqn",
              "value": "[concat('ebhvalidateresponse-',parameters('ClientID'))]"
            },
            {
              "name": "ebhconfigurationrequestqn",
              "value": "[concat('ebhconfigurationrequest-',parameters('ClientID'))]"
            },
            {
              "name": "ebhconfigurationresponseqn",
              "value": "[concat('ebhconfigurationresponse-',parameters('ClientID'))]"
            },
            {
              "name": "ebhinvsubrequestqn",
              "value": "[concat('ebhinvsubrequest-',parameters('ClientID'))]"
            },
            {
              "name": "ebhinvsubresponseqn",
              "value": "[concat('ebhinvsubresponse-',parameters('ClientID'))]"
            },
            {
              "name": "ebhinvstatrequestqn",
              "value": "[concat('ebhinvstatrequest-',parameters('ClientID'))]"
            },
            {
              "name": "ebhinvstatresponseqn",
              "value": "[concat('ebhinvstatresponse-',parameters('ClientID'))]"
            },
            {
              "name": "ebhattachmentrequestqn",
              "value": "[concat('ebhattachmentrequest-',parameters('ClientID'))]"
            },
            {
              "name": "ebhattachmentresponseqn",
              "value": "[concat('ebhattachmentresponse-',parameters('ClientID'))]"
            },
            {
              "name": "H3E-TRSInstanceID",
              "value": "[parameters('ClientID')]"
            },
            {
              "name": "TRS-AADAppID",
              "value": "[parameters('TRSRuntimeClientID')]"
            },
            {
              "name": "TRS-AADAppSecretKey",
              "value": "[parameters('TRSRuntimeClientSecret')]"
            },
            {
              "name": "TRS-AADServiceAppID",
              "value": "[parameters('TRSAppID')]"
            },
            {
              "name": "TRS-InternalAppRegistrationAAD",
              "value": "[parameters('TRSAADTenantID')]"
            },
            {
              "name": "TRS-IsEnabled",
              "value": "[parameters('TRS-IsEnabled')]"
            },
            {
              "name": "TRS-ServiceURI",
              "value": "[parameters('TRSUri')]"
            },
            {
              "name": "FUNCTIONS_WORKER_RUNTIME",
              "value": "[parameters('FUNCTIONS_WORKER_RUNTIME')]"
            }

          ],
          "alwaysOn": "[parameters('alwaysOn')]",
          "use32BitWorkerProcess": false
        },
        "serverFarmId": "[resourceId('Microsoft.Web/serverfarms', parameters('hostingPlanName'))]"
      }

    },
    {
      "name": "[parameters('hostingPlanName')]",
      "type": "Microsoft.Web/serverfarms",
      "apiVersion": "2018-11-01",
      "location": "[resourceGroup().location]",
      "properties": {
        "name": "[parameters('hostingPlanName')]",
        "workerSize": "[parameters('workerSize')]",
        "workerSizeId": "[parameters('workSizeId')]",
        "numberOfWorkers": "[parameters('numberOfWorkers')]"
      },
      "sku": {
        "Tier": "[parameters('hostingPlanSku')]",
        "Name": "[parameters('hostingPlanSkuCode')]"
      }
    },
    {
      "apiVersion": "2019-06-01",
      "name": "[parameters('StorageAccountName')]",
      "type": "Microsoft.Storage/storageAccounts",
      "location": "[resourceGroup().location]",
      "tags": {
      },
      "sku": {
        "name": "[parameters('StorageAccountSku')]"
      },
      "properties": {
        "supportsHttpsTrafficOnly": true,
        "allowBlobPublicAccess": false
      }
    }
  ]
}
